{
  "dashboard": "/dashboard",
  "users": "/users",
  "add_user": "/add-user",
  "edit_user": "/edit-user",
  "role": "/role",
  "add_role": "/add-role",
  "edit_role": "/edit-role",
  "report_all_transaction": "/report-all-transaction",
  "report_print_last_5_transaction": "/report-print-last-5-transaction",
  "report_print_passbook": "/report-print-passbook",
  "report_monthly_statement": "/report-monthly-statement",
  "report_ganti_kartu": "/report-ganti-kartu",
  "profile": "/profile",
  "audit_trail": "/audit-trail",
  "card": "/card-management",
  "add_card": "/add-card",
  "edit_card": "/edit-card",
  "terminal": "/terminal",
  "add_terminal": "/add-terminal",
  "edit_terminal": "/edit-terminal",
  "edit_terminal_card": "/edit-terminal-card",
  "edit_terminal_configuration": "/edit-terminal-configuration",
  "master_terminal_configuration": "/master-terminal-configuration",
  "add_master_terminal_configuration": "/add-master-terminal-configuration",
  "edit_master_terminal_configuration": "/edit-master-terminal-configuration",
  "monitoring": "/monitoring",
  "detail_monitoring": "/detail-monitoring",
  "login":"/login",
  "logout":"/logout"
}
